<svg width="33" height="34" viewBox="0 0 33 34" fill="none" xmlns="http://www.w3.org/2000/svg">
<path d="M28 1.99998C26.8952 2.00086 25.8359 2.44014 25.0547 3.22135C24.2735 4.00256 23.8342 5.06185 23.8333 6.16665C23.8333 6.76165 23.9633 7.32665 24.19 7.84165L20.9317 11.5066C19.8248 10.7426 18.5116 10.3334 17.1667 10.3333C15.9333 10.3333 14.7933 10.6933 13.8017 11.2766L10.0117 7.48832L9.97333 7.52665C10.3 6.86332 10.5 6.12498 10.5 5.33332C10.5 4.34441 10.2068 3.37771 9.65735 2.55546C9.10794 1.73322 8.32705 1.09236 7.41342 0.713918C6.49979 0.335479 5.49445 0.236463 4.52455 0.429389C3.55464 0.622315 2.66373 1.09852 1.96447 1.79778C1.2652 2.49704 0.789 3.38796 0.596074 4.35786C0.403148 5.32777 0.502165 6.3331 0.880603 7.24673C1.25904 8.16036 1.8999 8.94126 2.72215 9.49066C3.54439 10.0401 4.51109 10.3333 5.5 10.3333C6.29167 10.3333 7.02833 10.1333 7.69333 9.80665L7.655 9.84498L11.445 13.6333C10.8327 14.65 10.5062 15.8132 10.5 17C10.5 18.6616 11.1333 20.165 12.1417 21.335L7.84667 25.6283C7.36528 25.4356 6.85185 25.3355 6.33333 25.3333C4.03667 25.3333 2.16667 27.2016 2.16667 29.5C2.16667 31.7983 4.03667 33.6666 6.33333 33.6666C8.63 33.6666 10.5 31.7983 10.5 29.5C10.5 28.965 10.39 28.4566 10.205 27.985L14.935 23.255C15.6367 23.505 16.38 23.6666 17.1667 23.6666C20.8433 23.6666 23.8333 20.6766 23.8333 17C23.8333 15.94 23.5617 14.9516 23.12 14.06L26.6483 10.0883C27.075 10.235 27.525 10.3333 28 10.3333C30.2983 10.3333 32.1667 8.46498 32.1667 6.16665C32.1667 3.86832 30.2983 1.99998 28 1.99998ZM17.1667 20.3333C15.3283 20.3333 13.8333 18.8383 13.8333 17C13.8333 15.1616 15.3283 13.6666 17.1667 13.6666C19.005 13.6666 20.5 15.1616 20.5 17C20.5 18.8383 19.005 20.3333 17.1667 20.3333Z" fill="#292E3D"/>
</svg>
